-- Merging decision tree log ---
manifest
ADDED from E:\Android projects\android-fundamentals-apps-v2-master\DroidCafeWithSettingsChallenge\app\src\main\AndroidManifest.xml:17:1-55:12
INJECTED from E:\Android projects\android-fundamentals-apps-v2-master\DroidCafeWithSettingsChallenge\app\src\main\AndroidManifest.xml:17:1-55:12
INJECTED from E:\Android projects\android-fundamentals-apps-v2-master\DroidCafeWithSettingsChallenge\app\src\main\AndroidManifest.xml:17:1-55:12
INJECTED from E:\Android projects\android-fundamentals-apps-v2-master\DroidCafeWithSettingsChallenge\app\src\main\AndroidManifest.xml:17:1-55:12
MERGED from [com.android.support:design:26.1.0] C:\Users\Sri Ganesh\.gradle\caches\transforms-1\files-1.1\design-26.1.0.aar\758b610e382ff4459d45d6a5b4665bbe\AndroidManifest.xml:17:1-31:12
MERGED from [com.android.support:appcompat-v7:26.1.0] C:\Users\Sri Ganesh\.gradle\caches\transforms-1\files-1.1\appcompat-v7-26.1.0.aar\2cab0b9f8c8c667c4868c79a9c89497e\AndroidManifest.xml:17:1-31:12
MERGED from [com.android.support.constraint:constraint-layout:1.0.2] C:\Users\Sri Ganesh\.gradle\caches\transforms-1\files-1.1\constraint-layout-1.0.2.aar\69545dd725d3f2ad36c3f1cca386c64c\AndroidManifest.xml:2:1-11:12
MERGED from [com.android.support:transition:26.1.0] C:\Users\Sri Ganesh\.gradle\caches\transforms-1\files-1.1\transition-26.1.0.aar\af3f4416b003e116952038c57882b8bf\AndroidManifest.xml:17:1-28:12
MERGED from [com.android.support:support-v4:26.1.0] C:\Users\Sri Ganesh\.gradle\caches\transforms-1\files-1.1\support-v4-26.1.0.aar\94d3c85750625a71dd179c90c3e5ffb3\AndroidManifest.xml:17:1-31:12
MERGED from [com.android.support:animated-vector-drawable:26.1.0] C:\Users\Sri Ganesh\.gradle\caches\transforms-1\files-1.1\animated-vector-drawable-26.1.0.aar\0c0b839684062f888cbd18b9e8eaf6f1\AndroidManifest.xml:17:1-28:12
MERGED from [com.android.support:support-vector-drawable:26.1.0] C:\Users\Sri Ganesh\.gradle\caches\transforms-1\files-1.1\support-vector-drawable-26.1.0.aar\071ba54d6d6cd223a91e7d418b12e518\AndroidManifest.xml:17:1-28:12
MERGED from [com.android.support:recyclerview-v7:26.1.0] C:\Users\Sri Ganesh\.gradle\caches\transforms-1\files-1.1\recyclerview-v7-26.1.0.aar\c6e4cedf6aa7b358c7f48dc94c49efde\AndroidManifest.xml:17:1-28:12
MERGED from [com.android.support:support-media-compat:26.1.0] C:\Users\Sri Ganesh\.gradle\caches\transforms-1\files-1.1\support-media-compat-26.1.0.aar\4600e66c8415fc0ad15b5330066700cb\AndroidManifest.xml:17:1-31:12
MERGED from [com.android.support:support-fragment:26.1.0] C:\Users\Sri Ganesh\.gradle\caches\transforms-1\files-1.1\support-fragment-26.1.0.aar\815d6d94750a10ea879b0358b25de336\AndroidManifest.xml:17:1-31:12
MERGED from [com.android.support:support-core-utils:26.1.0] C:\Users\Sri Ganesh\.gradle\caches\transforms-1\files-1.1\support-core-utils-26.1.0.aar\5bac239220935f269ffbed9d425dc4dd\AndroidManifest.xml:17:1-31:12
MERGED from [com.android.support:support-core-ui:26.1.0] C:\Users\Sri Ganesh\.gradle\caches\transforms-1\files-1.1\support-core-ui-26.1.0.aar\50614feed2d0c51fb88bab8ef175bf3c\AndroidManifest.xml:17:1-31:12
MERGED from [com.android.support:support-compat:26.1.0] C:\Users\Sri Ganesh\.gradle\caches\transforms-1\files-1.1\support-compat-26.1.0.aar\1c898b5dda89276df33a3771c2f88ced\AndroidManifest.xml:17:1-31:12
MERGED from [android.arch.lifecycle:runtime:1.0.0] C:\Users\Sri Ganesh\.gradle\caches\transforms-1\files-1.1\runtime-1.0.0.aar\f2415531999ef1a225bc40b7a3c3ebb2\AndroidManifest.xml:17:1-30:12
INJECTED from E:\Android projects\android-fundamentals-apps-v2-master\DroidCafeWithSettingsChallenge\app\src\main\AndroidManifest.xml:17:1-55:12
INJECTED from E:\Android projects\android-fundamentals-apps-v2-master\DroidCafeWithSettingsChallenge\app\src\main\AndroidManifest.xml:17:1-55:12
INJECTED from E:\Android projects\android-fundamentals-apps-v2-master\DroidCafeWithSettingsChallenge\app\src\main\AndroidManifest.xml:17:1-55:12
	package
		ADDED from E:\Android projects\android-fundamentals-apps-v2-master\DroidCafeWithSettingsChallenge\app\src\main\AndroidManifest.xml:18:5-49
		INJECTED from E:\Android projects\android-fundamentals-apps-v2-master\DroidCafeWithSettingsChallenge\app\src\main\AndroidManifest.xml
		INJECTED from E:\Android projects\android-fundamentals-apps-v2-master\DroidCafeWithSettingsChallenge\app\src\main\AndroidManifest.xml
	android:versionName
		INJECTED from E:\Android projects\android-fundamentals-apps-v2-master\DroidCafeWithSettingsChallenge\app\src\main\AndroidManifest.xml
		ADDED from E:\Android projects\android-fundamentals-apps-v2-master\DroidCafeWithSettingsChallenge\app\src\main\AndroidManifest.xml:17:1-55:12
		INJECTED from E:\Android projects\android-fundamentals-apps-v2-master\DroidCafeWithSettingsChallenge\app\src\main\AndroidManifest.xml
	android:versionCode
		INJECTED from E:\Android projects\android-fundamentals-apps-v2-master\DroidCafeWithSettingsChallenge\app\src\main\AndroidManifest.xml
		ADDED from E:\Android projects\android-fundamentals-apps-v2-master\DroidCafeWithSettingsChallenge\app\src\main\AndroidManifest.xml:17:1-55:12
		INJECTED from E:\Android projects\android-fundamentals-apps-v2-master\DroidCafeWithSettingsChallenge\app\src\main\AndroidManifest.xml
	xmlns:android
		ADDED from E:\Android projects\android-fundamentals-apps-v2-master\DroidCafeWithSettingsChallenge\app\src\main\AndroidManifest.xml:17:11-69
application
ADDED from E:\Android projects\android-fundamentals-apps-v2-master\DroidCafeWithSettingsChallenge\app\src\main\AndroidManifest.xml:20:5-53:19
MERGED from [com.android.support:design:26.1.0] C:\Users\Sri Ganesh\.gradle\caches\transforms-1\files-1.1\design-26.1.0.aar\758b610e382ff4459d45d6a5b4665bbe\AndroidManifest.xml:25:5-29:19
MERGED from [com.android.support:design:26.1.0] C:\Users\Sri Ganesh\.gradle\caches\transforms-1\files-1.1\design-26.1.0.aar\758b610e382ff4459d45d6a5b4665bbe\AndroidManifest.xml:25:5-29:19
MERGED from [com.android.support:appcompat-v7:26.1.0] C:\Users\Sri Ganesh\.gradle\caches\transforms-1\files-1.1\appcompat-v7-26.1.0.aar\2cab0b9f8c8c667c4868c79a9c89497e\AndroidManifest.xml:25:5-29:19
MERGED from [com.android.support:appcompat-v7:26.1.0] C:\Users\Sri Ganesh\.gradle\caches\transforms-1\files-1.1\appcompat-v7-26.1.0.aar\2cab0b9f8c8c667c4868c79a9c89497e\AndroidManifest.xml:25:5-29:19
MERGED from [com.android.support.constraint:constraint-layout:1.0.2] C:\Users\Sri Ganesh\.gradle\caches\transforms-1\files-1.1\constraint-layout-1.0.2.aar\69545dd725d3f2ad36c3f1cca386c64c\AndroidManifest.xml:9:5-20
MERGED from [com.android.support.constraint:constraint-layout:1.0.2] C:\Users\Sri Ganesh\.gradle\caches\transforms-1\files-1.1\constraint-layout-1.0.2.aar\69545dd725d3f2ad36c3f1cca386c64c\AndroidManifest.xml:9:5-20
MERGED from [com.android.support:transition:26.1.0] C:\Users\Sri Ganesh\.gradle\caches\transforms-1\files-1.1\transition-26.1.0.aar\af3f4416b003e116952038c57882b8bf\AndroidManifest.xml:22:5-26:19
MERGED from [com.android.support:transition:26.1.0] C:\Users\Sri Ganesh\.gradle\caches\transforms-1\files-1.1\transition-26.1.0.aar\af3f4416b003e116952038c57882b8bf\AndroidManifest.xml:22:5-26:19
MERGED from [com.android.support:support-v4:26.1.0] C:\Users\Sri Ganesh\.gradle\caches\transforms-1\files-1.1\support-v4-26.1.0.aar\94d3c85750625a71dd179c90c3e5ffb3\AndroidManifest.xml:25:5-29:19
MERGED from [com.android.support:support-v4:26.1.0] C:\Users\Sri Ganesh\.gradle\caches\transforms-1\files-1.1\support-v4-26.1.0.aar\94d3c85750625a71dd179c90c3e5ffb3\AndroidManifest.xml:25:5-29:19
MERGED from [com.android.support:animated-vector-drawable:26.1.0] C:\Users\Sri Ganesh\.gradle\caches\transforms-1\files-1.1\animated-vector-drawable-26.1.0.aar\0c0b839684062f888cbd18b9e8eaf6f1\AndroidManifest.xml:22:5-26:19
MERGED from [com.android.support:animated-vector-drawable:26.1.0] C:\Users\Sri Ganesh\.gradle\caches\transforms-1\files-1.1\animated-vector-drawable-26.1.0.aar\0c0b839684062f888cbd18b9e8eaf6f1\AndroidManifest.xml:22:5-26:19
MERGED from [com.android.support:support-vector-drawable:26.1.0] C:\Users\Sri Ganesh\.gradle\caches\transforms-1\files-1.1\support-vector-drawable-26.1.0.aar\071ba54d6d6cd223a91e7d418b12e518\AndroidManifest.xml:22:5-26:19
MERGED from [com.android.support:support-vector-drawable:26.1.0] C:\Users\Sri Ganesh\.gradle\caches\transforms-1\files-1.1\support-vector-drawable-26.1.0.aar\071ba54d6d6cd223a91e7d418b12e518\AndroidManifest.xml:22:5-26:19
MERGED from [com.android.support:recyclerview-v7:26.1.0] C:\Users\Sri Ganesh\.gradle\caches\transforms-1\files-1.1\recyclerview-v7-26.1.0.aar\c6e4cedf6aa7b358c7f48dc94c49efde\AndroidManifest.xml:22:5-26:19
MERGED from [com.android.support:recyclerview-v7:26.1.0] C:\Users\Sri Ganesh\.gradle\caches\transforms-1\files-1.1\recyclerview-v7-26.1.0.aar\c6e4cedf6aa7b358c7f48dc94c49efde\AndroidManifest.xml:22:5-26:19
MERGED from [com.android.support:support-media-compat:26.1.0] C:\Users\Sri Ganesh\.gradle\caches\transforms-1\files-1.1\support-media-compat-26.1.0.aar\4600e66c8415fc0ad15b5330066700cb\AndroidManifest.xml:25:5-29:19
MERGED from [com.android.support:support-media-compat:26.1.0] C:\Users\Sri Ganesh\.gradle\caches\transforms-1\files-1.1\support-media-compat-26.1.0.aar\4600e66c8415fc0ad15b5330066700cb\AndroidManifest.xml:25:5-29:19
MERGED from [com.android.support:support-fragment:26.1.0] C:\Users\Sri Ganesh\.gradle\caches\transforms-1\files-1.1\support-fragment-26.1.0.aar\815d6d94750a10ea879b0358b25de336\AndroidManifest.xml:25:5-29:19
MERGED from [com.android.support:support-fragment:26.1.0] C:\Users\Sri Ganesh\.gradle\caches\transforms-1\files-1.1\support-fragment-26.1.0.aar\815d6d94750a10ea879b0358b25de336\AndroidManifest.xml:25:5-29:19
MERGED from [com.android.support:support-core-utils:26.1.0] C:\Users\Sri Ganesh\.gradle\caches\transforms-1\files-1.1\support-core-utils-26.1.0.aar\5bac239220935f269ffbed9d425dc4dd\AndroidManifest.xml:25:5-29:19
MERGED from [com.android.support:support-core-utils:26.1.0] C:\Users\Sri Ganesh\.gradle\caches\transforms-1\files-1.1\support-core-utils-26.1.0.aar\5bac239220935f269ffbed9d425dc4dd\AndroidManifest.xml:25:5-29:19
MERGED from [com.android.support:support-core-ui:26.1.0] C:\Users\Sri Ganesh\.gradle\caches\transforms-1\files-1.1\support-core-ui-26.1.0.aar\50614feed2d0c51fb88bab8ef175bf3c\AndroidManifest.xml:25:5-29:19
MERGED from [com.android.support:support-core-ui:26.1.0] C:\Users\Sri Ganesh\.gradle\caches\transforms-1\files-1.1\support-core-ui-26.1.0.aar\50614feed2d0c51fb88bab8ef175bf3c\AndroidManifest.xml:25:5-29:19
MERGED from [com.android.support:support-compat:26.1.0] C:\Users\Sri Ganesh\.gradle\caches\transforms-1\files-1.1\support-compat-26.1.0.aar\1c898b5dda89276df33a3771c2f88ced\AndroidManifest.xml:25:5-29:19
MERGED from [com.android.support:support-compat:26.1.0] C:\Users\Sri Ganesh\.gradle\caches\transforms-1\files-1.1\support-compat-26.1.0.aar\1c898b5dda89276df33a3771c2f88ced\AndroidManifest.xml:25:5-29:19
MERGED from [android.arch.lifecycle:runtime:1.0.0] C:\Users\Sri Ganesh\.gradle\caches\transforms-1\files-1.1\runtime-1.0.0.aar\f2415531999ef1a225bc40b7a3c3ebb2\AndroidManifest.xml:24:5-28:19
MERGED from [android.arch.lifecycle:runtime:1.0.0] C:\Users\Sri Ganesh\.gradle\caches\transforms-1\files-1.1\runtime-1.0.0.aar\f2415531999ef1a225bc40b7a3c3ebb2\AndroidManifest.xml:24:5-28:19
	android:supportsRtl
		ADDED from E:\Android projects\android-fundamentals-apps-v2-master\DroidCafeWithSettingsChallenge\app\src\main\AndroidManifest.xml:25:9-35
	android:label
		ADDED from E:\Android projects\android-fundamentals-apps-v2-master\DroidCafeWithSettingsChallenge\app\src\main\AndroidManifest.xml:23:9-41
	android:roundIcon
		ADDED from E:\Android projects\android-fundamentals-apps-v2-master\DroidCafeWithSettingsChallenge\app\src\main\AndroidManifest.xml:24:9-54
	android:icon
		ADDED from E:\Android projects\android-fundamentals-apps-v2-master\DroidCafeWithSettingsChallenge\app\src\main\AndroidManifest.xml:22:9-43
	android:allowBackup
		ADDED from E:\Android projects\android-fundamentals-apps-v2-master\DroidCafeWithSettingsChallenge\app\src\main\AndroidManifest.xml:21:9-35
	android:theme
		ADDED from E:\Android projects\android-fundamentals-apps-v2-master\DroidCafeWithSettingsChallenge\app\src\main\AndroidManifest.xml:26:9-40
activity#com.example.android.droidcafeinput.MainActivity
ADDED from E:\Android projects\android-fundamentals-apps-v2-master\DroidCafeWithSettingsChallenge\app\src\main\AndroidManifest.xml:27:9-36:20
	android:label
		ADDED from E:\Android projects\android-fundamentals-apps-v2-master\DroidCafeWithSettingsChallenge\app\src\main\AndroidManifest.xml:29:13-45
	android:theme
		ADDED from E:\Android projects\android-fundamentals-apps-v2-master\DroidCafeWithSettingsChallenge\app\src\main\AndroidManifest.xml:30:13-56
	android:name
		ADDED from E:\Android projects\android-fundamentals-apps-v2-master\DroidCafeWithSettingsChallenge\app\src\main\AndroidManifest.xml:28:13-41
intent-filter#action:name:android.intent.action.MAIN+category:name:android.intent.category.LAUNCHER
ADDED from E:\Android projects\android-fundamentals-apps-v2-master\DroidCafeWithSettingsChallenge\app\src\main\AndroidManifest.xml:31:13-35:29
action#android.intent.action.MAIN
ADDED from E:\Android projects\android-fundamentals-apps-v2-master\DroidCafeWithSettingsChallenge\app\src\main\AndroidManifest.xml:32:17-69
	android:name
		ADDED from E:\Android projects\android-fundamentals-apps-v2-master\DroidCafeWithSettingsChallenge\app\src\main\AndroidManifest.xml:32:25-66
category#android.intent.category.LAUNCHER
ADDED from E:\Android projects\android-fundamentals-apps-v2-master\DroidCafeWithSettingsChallenge\app\src\main\AndroidManifest.xml:34:17-77
	android:name
		ADDED from E:\Android projects\android-fundamentals-apps-v2-master\DroidCafeWithSettingsChallenge\app\src\main\AndroidManifest.xml:34:27-74
activity#com.example.android.droidcafeinput.OrderActivity
ADDED from E:\Android projects\android-fundamentals-apps-v2-master\DroidCafeWithSettingsChallenge\app\src\main\AndroidManifest.xml:37:9-44:20
	android:parentActivityName
		ADDED from E:\Android projects\android-fundamentals-apps-v2-master\DroidCafeWithSettingsChallenge\app\src\main\AndroidManifest.xml:40:13-55
	android:label
		ADDED from E:\Android projects\android-fundamentals-apps-v2-master\DroidCafeWithSettingsChallenge\app\src\main\AndroidManifest.xml:39:13-57
	android:name
		ADDED from E:\Android projects\android-fundamentals-apps-v2-master\DroidCafeWithSettingsChallenge\app\src\main\AndroidManifest.xml:38:13-42
meta-data#android.support.PARENT_ACTIVITY
ADDED from E:\Android projects\android-fundamentals-apps-v2-master\DroidCafeWithSettingsChallenge\app\src\main\AndroidManifest.xml:41:13-43:49
	android:value
		ADDED from E:\Android projects\android-fundamentals-apps-v2-master\DroidCafeWithSettingsChallenge\app\src\main\AndroidManifest.xml:43:17-46
	android:name
		ADDED from E:\Android projects\android-fundamentals-apps-v2-master\DroidCafeWithSettingsChallenge\app\src\main\AndroidManifest.xml:42:17-63
activity#com.example.android.droidcafeinput.SettingsActivity
ADDED from E:\Android projects\android-fundamentals-apps-v2-master\DroidCafeWithSettingsChallenge\app\src\main\AndroidManifest.xml:45:9-52:20
	android:parentActivityName
		ADDED from E:\Android projects\android-fundamentals-apps-v2-master\DroidCafeWithSettingsChallenge\app\src\main\AndroidManifest.xml:48:13-55
	android:label
		ADDED from E:\Android projects\android-fundamentals-apps-v2-master\DroidCafeWithSettingsChallenge\app\src\main\AndroidManifest.xml:47:13-60
	android:name
		ADDED from E:\Android projects\android-fundamentals-apps-v2-master\DroidCafeWithSettingsChallenge\app\src\main\AndroidManifest.xml:46:13-45
uses-sdk
INJECTED from E:\Android projects\android-fundamentals-apps-v2-master\DroidCafeWithSettingsChallenge\app\src\main\AndroidManifest.xml reason: use-sdk injection requested
INJECTED from E:\Android projects\android-fundamentals-apps-v2-master\DroidCafeWithSettingsChallenge\app\src\main\AndroidManifest.xml
INJECTED from E:\Android projects\android-fundamentals-apps-v2-master\DroidCafeWithSettingsChallenge\app\src\main\AndroidManifest.xml
MERGED from [com.android.support:design:26.1.0] C:\Users\Sri Ganesh\.gradle\caches\transforms-1\files-1.1\design-26.1.0.aar\758b610e382ff4459d45d6a5b4665bbe\AndroidManifest.xml:21:5-23:62
MERGED from [com.android.support:design:26.1.0] C:\Users\Sri Ganesh\.gradle\caches\transforms-1\files-1.1\design-26.1.0.aar\758b610e382ff4459d45d6a5b4665bbe\AndroidManifest.xml:21:5-23:62
MERGED from [com.android.support:appcompat-v7:26.1.0] C:\Users\Sri Ganesh\.gradle\caches\transforms-1\files-1.1\appcompat-v7-26.1.0.aar\2cab0b9f8c8c667c4868c79a9c89497e\AndroidManifest.xml:21:5-23:78
MERGED from [com.android.support:appcompat-v7:26.1.0] C:\Users\Sri Ganesh\.gradle\caches\transforms-1\files-1.1\appcompat-v7-26.1.0.aar\2cab0b9f8c8c667c4868c79a9c89497e\AndroidManifest.xml:21:5-23:78
MERGED from [com.android.support.constraint:constraint-layout:1.0.2] C:\Users\Sri Ganesh\.gradle\caches\transforms-1\files-1.1\constraint-layout-1.0.2.aar\69545dd725d3f2ad36c3f1cca386c64c\AndroidManifest.xml:5:5-7:41
MERGED from [com.android.support.constraint:constraint-layout:1.0.2] C:\Users\Sri Ganesh\.gradle\caches\transforms-1\files-1.1\constraint-layout-1.0.2.aar\69545dd725d3f2ad36c3f1cca386c64c\AndroidManifest.xml:5:5-7:41
MERGED from [com.android.support:transition:26.1.0] C:\Users\Sri Ganesh\.gradle\caches\transforms-1\files-1.1\transition-26.1.0.aar\af3f4416b003e116952038c57882b8bf\AndroidManifest.xml:20:5-44
MERGED from [com.android.support:transition:26.1.0] C:\Users\Sri Ganesh\.gradle\caches\transforms-1\files-1.1\transition-26.1.0.aar\af3f4416b003e116952038c57882b8bf\AndroidManifest.xml:20:5-44
MERGED from [com.android.support:support-v4:26.1.0] C:\Users\Sri Ganesh\.gradle\caches\transforms-1\files-1.1\support-v4-26.1.0.aar\94d3c85750625a71dd179c90c3e5ffb3\AndroidManifest.xml:21:5-23:54
MERGED from [com.android.support:support-v4:26.1.0] C:\Users\Sri Ganesh\.gradle\caches\transforms-1\files-1.1\support-v4-26.1.0.aar\94d3c85750625a71dd179c90c3e5ffb3\AndroidManifest.xml:21:5-23:54
MERGED from [com.android.support:animated-vector-drawable:26.1.0] C:\Users\Sri Ganesh\.gradle\caches\transforms-1\files-1.1\animated-vector-drawable-26.1.0.aar\0c0b839684062f888cbd18b9e8eaf6f1\AndroidManifest.xml:20:5-44
MERGED from [com.android.support:animated-vector-drawable:26.1.0] C:\Users\Sri Ganesh\.gradle\caches\transforms-1\files-1.1\animated-vector-drawable-26.1.0.aar\0c0b839684062f888cbd18b9e8eaf6f1\AndroidManifest.xml:20:5-44
MERGED from [com.android.support:support-vector-drawable:26.1.0] C:\Users\Sri Ganesh\.gradle\caches\transforms-1\files-1.1\support-vector-drawable-26.1.0.aar\071ba54d6d6cd223a91e7d418b12e518\AndroidManifest.xml:20:5-44
MERGED from [com.android.support:support-vector-drawable:26.1.0] C:\Users\Sri Ganesh\.gradle\caches\transforms-1\files-1.1\support-vector-drawable-26.1.0.aar\071ba54d6d6cd223a91e7d418b12e518\AndroidManifest.xml:20:5-44
MERGED from [com.android.support:recyclerview-v7:26.1.0] C:\Users\Sri Ganesh\.gradle\caches\transforms-1\files-1.1\recyclerview-v7-26.1.0.aar\c6e4cedf6aa7b358c7f48dc94c49efde\AndroidManifest.xml:20:5-44
MERGED from [com.android.support:recyclerview-v7:26.1.0] C:\Users\Sri Ganesh\.gradle\caches\transforms-1\files-1.1\recyclerview-v7-26.1.0.aar\c6e4cedf6aa7b358c7f48dc94c49efde\AndroidManifest.xml:20:5-44
MERGED from [com.android.support:support-media-compat:26.1.0] C:\Users\Sri Ganesh\.gradle\caches\transforms-1\files-1.1\support-media-compat-26.1.0.aar\4600e66c8415fc0ad15b5330066700cb\AndroidManifest.xml:21:5-23:63
MERGED from [com.android.support:support-media-compat:26.1.0] C:\Users\Sri Ganesh\.gradle\caches\transforms-1\files-1.1\support-media-compat-26.1.0.aar\4600e66c8415fc0ad15b5330066700cb\AndroidManifest.xml:21:5-23:63
MERGED from [com.android.support:support-fragment:26.1.0] C:\Users\Sri Ganesh\.gradle\caches\transforms-1\files-1.1\support-fragment-26.1.0.aar\815d6d94750a10ea879b0358b25de336\AndroidManifest.xml:21:5-23:60
MERGED from [com.android.support:support-fragment:26.1.0] C:\Users\Sri Ganesh\.gradle\caches\transforms-1\files-1.1\support-fragment-26.1.0.aar\815d6d94750a10ea879b0358b25de336\AndroidManifest.xml:21:5-23:60
MERGED from [com.android.support:support-core-utils:26.1.0] C:\Users\Sri Ganesh\.gradle\caches\transforms-1\files-1.1\support-core-utils-26.1.0.aar\5bac239220935f269ffbed9d425dc4dd\AndroidManifest.xml:21:5-23:61
MERGED from [com.android.support:support-core-utils:26.1.0] C:\Users\Sri Ganesh\.gradle\caches\transforms-1\files-1.1\support-core-utils-26.1.0.aar\5bac239220935f269ffbed9d425dc4dd\AndroidManifest.xml:21:5-23:61
MERGED from [com.android.support:support-core-ui:26.1.0] C:\Users\Sri Ganesh\.gradle\caches\transforms-1\files-1.1\support-core-ui-26.1.0.aar\50614feed2d0c51fb88bab8ef175bf3c\AndroidManifest.xml:21:5-23:58
MERGED from [com.android.support:support-core-ui:26.1.0] C:\Users\Sri Ganesh\.gradle\caches\transforms-1\files-1.1\support-core-ui-26.1.0.aar\50614feed2d0c51fb88bab8ef175bf3c\AndroidManifest.xml:21:5-23:58
MERGED from [com.android.support:support-compat:26.1.0] C:\Users\Sri Ganesh\.gradle\caches\transforms-1\files-1.1\support-compat-26.1.0.aar\1c898b5dda89276df33a3771c2f88ced\AndroidManifest.xml:21:5-23:58
MERGED from [com.android.support:support-compat:26.1.0] C:\Users\Sri Ganesh\.gradle\caches\transforms-1\files-1.1\support-compat-26.1.0.aar\1c898b5dda89276df33a3771c2f88ced\AndroidManifest.xml:21:5-23:58
MERGED from [android.arch.lifecycle:runtime:1.0.0] C:\Users\Sri Ganesh\.gradle\caches\transforms-1\files-1.1\runtime-1.0.0.aar\f2415531999ef1a225bc40b7a3c3ebb2\AndroidManifest.xml:20:5-22:41
MERGED from [android.arch.lifecycle:runtime:1.0.0] C:\Users\Sri Ganesh\.gradle\caches\transforms-1\files-1.1\runtime-1.0.0.aar\f2415531999ef1a225bc40b7a3c3ebb2\AndroidManifest.xml:20:5-22:41
INJECTED from E:\Android projects\android-fundamentals-apps-v2-master\DroidCafeWithSettingsChallenge\app\src\main\AndroidManifest.xml
INJECTED from E:\Android projects\android-fundamentals-apps-v2-master\DroidCafeWithSettingsChallenge\app\src\main\AndroidManifest.xml
	tools:overrideLibrary
		ADDED from [com.android.support:design:26.1.0] C:\Users\Sri Ganesh\.gradle\caches\transforms-1\files-1.1\design-26.1.0.aar\758b610e382ff4459d45d6a5b4665bbe\AndroidManifest.xml:23:9-59
	android:targetSdkVersion
		INJECTED from E:\Android projects\android-fundamentals-apps-v2-master\DroidCafeWithSettingsChallenge\app\src\main\AndroidManifest.xml
		ADDED from E:\Android projects\android-fundamentals-apps-v2-master\DroidCafeWithSettingsChallenge\app\src\main\AndroidManifest.xml
		INJECTED from E:\Android projects\android-fundamentals-apps-v2-master\DroidCafeWithSettingsChallenge\app\src\main\AndroidManifest.xml
	android:minSdkVersion
		INJECTED from E:\Android projects\android-fundamentals-apps-v2-master\DroidCafeWithSettingsChallenge\app\src\main\AndroidManifest.xml
		ADDED from E:\Android projects\android-fundamentals-apps-v2-master\DroidCafeWithSettingsChallenge\app\src\main\AndroidManifest.xml
		INJECTED from E:\Android projects\android-fundamentals-apps-v2-master\DroidCafeWithSettingsChallenge\app\src\main\AndroidManifest.xml
meta-data#android.support.VERSION
ADDED from [com.android.support:design:26.1.0] C:\Users\Sri Ganesh\.gradle\caches\transforms-1\files-1.1\design-26.1.0.aar\758b610e382ff4459d45d6a5b4665bbe\AndroidManifest.xml:26:9-28:38
MERGED from [com.android.support:appcompat-v7:26.1.0] C:\Users\Sri Ganesh\.gradle\caches\transforms-1\files-1.1\appcompat-v7-26.1.0.aar\2cab0b9f8c8c667c4868c79a9c89497e\AndroidManifest.xml:26:9-28:38
MERGED from [com.android.support:appcompat-v7:26.1.0] C:\Users\Sri Ganesh\.gradle\caches\transforms-1\files-1.1\appcompat-v7-26.1.0.aar\2cab0b9f8c8c667c4868c79a9c89497e\AndroidManifest.xml:26:9-28:38
MERGED from [com.android.support:transition:26.1.0] C:\Users\Sri Ganesh\.gradle\caches\transforms-1\files-1.1\transition-26.1.0.aar\af3f4416b003e116952038c57882b8bf\AndroidManifest.xml:23:9-25:38
MERGED from [com.android.support:transition:26.1.0] C:\Users\Sri Ganesh\.gradle\caches\transforms-1\files-1.1\transition-26.1.0.aar\af3f4416b003e116952038c57882b8bf\AndroidManifest.xml:23:9-25:38
MERGED from [com.android.support:support-v4:26.1.0] C:\Users\Sri Ganesh\.gradle\caches\transforms-1\files-1.1\support-v4-26.1.0.aar\94d3c85750625a71dd179c90c3e5ffb3\AndroidManifest.xml:26:9-28:38
MERGED from [com.android.support:support-v4:26.1.0] C:\Users\Sri Ganesh\.gradle\caches\transforms-1\files-1.1\support-v4-26.1.0.aar\94d3c85750625a71dd179c90c3e5ffb3\AndroidManifest.xml:26:9-28:38
MERGED from [com.android.support:animated-vector-drawable:26.1.0] C:\Users\Sri Ganesh\.gradle\caches\transforms-1\files-1.1\animated-vector-drawable-26.1.0.aar\0c0b839684062f888cbd18b9e8eaf6f1\AndroidManifest.xml:23:9-25:38
MERGED from [com.android.support:animated-vector-drawable:26.1.0] C:\Users\Sri Ganesh\.gradle\caches\transforms-1\files-1.1\animated-vector-drawable-26.1.0.aar\0c0b839684062f888cbd18b9e8eaf6f1\AndroidManifest.xml:23:9-25:38
MERGED from [com.android.support:support-vector-drawable:26.1.0] C:\Users\Sri Ganesh\.gradle\caches\transforms-1\files-1.1\support-vector-drawable-26.1.0.aar\071ba54d6d6cd223a91e7d418b12e518\AndroidManifest.xml:23:9-25:38
MERGED from [com.android.support:support-vector-drawable:26.1.0] C:\Users\Sri Ganesh\.gradle\caches\transforms-1\files-1.1\support-vector-drawable-26.1.0.aar\071ba54d6d6cd223a91e7d418b12e518\AndroidManifest.xml:23:9-25:38
MERGED from [com.android.support:recyclerview-v7:26.1.0] C:\Users\Sri Ganesh\.gradle\caches\transforms-1\files-1.1\recyclerview-v7-26.1.0.aar\c6e4cedf6aa7b358c7f48dc94c49efde\AndroidManifest.xml:23:9-25:38
MERGED from [com.android.support:recyclerview-v7:26.1.0] C:\Users\Sri Ganesh\.gradle\caches\transforms-1\files-1.1\recyclerview-v7-26.1.0.aar\c6e4cedf6aa7b358c7f48dc94c49efde\AndroidManifest.xml:23:9-25:38
MERGED from [com.android.support:support-media-compat:26.1.0] C:\Users\Sri Ganesh\.gradle\caches\transforms-1\files-1.1\support-media-compat-26.1.0.aar\4600e66c8415fc0ad15b5330066700cb\AndroidManifest.xml:26:9-28:38
MERGED from [com.android.support:support-media-compat:26.1.0] C:\Users\Sri Ganesh\.gradle\caches\transforms-1\files-1.1\support-media-compat-26.1.0.aar\4600e66c8415fc0ad15b5330066700cb\AndroidManifest.xml:26:9-28:38
MERGED from [com.android.support:support-fragment:26.1.0] C:\Users\Sri Ganesh\.gradle\caches\transforms-1\files-1.1\support-fragment-26.1.0.aar\815d6d94750a10ea879b0358b25de336\AndroidManifest.xml:26:9-28:38
MERGED from [com.android.support:support-fragment:26.1.0] C:\Users\Sri Ganesh\.gradle\caches\transforms-1\files-1.1\support-fragment-26.1.0.aar\815d6d94750a10ea879b0358b25de336\AndroidManifest.xml:26:9-28:38
MERGED from [com.android.support:support-core-utils:26.1.0] C:\Users\Sri Ganesh\.gradle\caches\transforms-1\files-1.1\support-core-utils-26.1.0.aar\5bac239220935f269ffbed9d425dc4dd\AndroidManifest.xml:26:9-28:38
MERGED from [com.android.support:support-core-utils:26.1.0] C:\Users\Sri Ganesh\.gradle\caches\transforms-1\files-1.1\support-core-utils-26.1.0.aar\5bac239220935f269ffbed9d425dc4dd\AndroidManifest.xml:26:9-28:38
MERGED from [com.android.support:support-core-ui:26.1.0] C:\Users\Sri Ganesh\.gradle\caches\transforms-1\files-1.1\support-core-ui-26.1.0.aar\50614feed2d0c51fb88bab8ef175bf3c\AndroidManifest.xml:26:9-28:38
MERGED from [com.android.support:support-core-ui:26.1.0] C:\Users\Sri Ganesh\.gradle\caches\transforms-1\files-1.1\support-core-ui-26.1.0.aar\50614feed2d0c51fb88bab8ef175bf3c\AndroidManifest.xml:26:9-28:38
MERGED from [com.android.support:support-compat:26.1.0] C:\Users\Sri Ganesh\.gradle\caches\transforms-1\files-1.1\support-compat-26.1.0.aar\1c898b5dda89276df33a3771c2f88ced\AndroidManifest.xml:26:9-28:38
MERGED from [com.android.support:support-compat:26.1.0] C:\Users\Sri Ganesh\.gradle\caches\transforms-1\files-1.1\support-compat-26.1.0.aar\1c898b5dda89276df33a3771c2f88ced\AndroidManifest.xml:26:9-28:38
	android:value
		ADDED from [com.android.support:design:26.1.0] C:\Users\Sri Ganesh\.gradle\caches\transforms-1\files-1.1\design-26.1.0.aar\758b610e382ff4459d45d6a5b4665bbe\AndroidManifest.xml:28:13-35
	android:name
		ADDED from [com.android.support:design:26.1.0] C:\Users\Sri Ganesh\.gradle\caches\transforms-1\files-1.1\design-26.1.0.aar\758b610e382ff4459d45d6a5b4665bbe\AndroidManifest.xml:27:13-51
meta-data#android.arch.lifecycle.VERSION
ADDED from [android.arch.lifecycle:runtime:1.0.0] C:\Users\Sri Ganesh\.gradle\caches\transforms-1\files-1.1\runtime-1.0.0.aar\f2415531999ef1a225bc40b7a3c3ebb2\AndroidManifest.xml:25:9-27:47
	android:value
		ADDED from [android.arch.lifecycle:runtime:1.0.0] C:\Users\Sri Ganesh\.gradle\caches\transforms-1\files-1.1\runtime-1.0.0.aar\f2415531999ef1a225bc40b7a3c3ebb2\AndroidManifest.xml:27:13-44
	android:name
		ADDED from [android.arch.lifecycle:runtime:1.0.0] C:\Users\Sri Ganesh\.gradle\caches\transforms-1\files-1.1\runtime-1.0.0.aar\f2415531999ef1a225bc40b7a3c3ebb2\AndroidManifest.xml:26:13-58
